{
  "project_info": {
    "project_number": "364288404358",
    "firebase_url": "https://estudiaderosucr.firebaseio.com",
    "project_id": "estudiaderosucr",
    "storage_bucket": "estudiaderosucr.appspot.com"
  },
  "client": [
    {
      "client_info": {
        "mobilesdk_app_id": "1:364288404358:android:6181661339c4f292059a07",
        "android_client_info": {
          "package_name": "cr.ac.ucr.ecci.eseg.estudiaderosucr"
        }
      },
      "oauth_client": [
        {
          "client_id": "364288404358-3092rt8r8c9d2s1c0807nkljnc2r121f.apps.googleusercontent.com",
          "client_type": 1,
          "android_info": {
            "package_name": "cr.ac.ucr.ecci.eseg.estudiaderosucr",
            "certificate_hash": "ae846051fb6a8c26ae825a883c938ed479431376"
          }
        },
        {
          "client_id": "364288404358-nned018s3aufvpm5ib1gr4aputiri4dp.apps.googleusercontent.com",
          "client_type": 3
        }
      ],
      "api_key": [
        {
          "current_key": "AIzaSyDja6B7B0zaJqrFdVkbLa6qQgv1cTC_0yM"
        }
      ],
      "services": {
        "appinvite_service": {
          "other_platform_oauth_client": [
            {
              "client_id": "364288404358-nned018s3aufvpm5ib1gr4aputiri4dp.apps.googleusercontent.com",
              "client_type": 3
            }
          ]
        }
      }
    }
  ],
  "configuration_version": "1"
}